<?xml version="1.0" encoding="UTF-8" standalone="no"?>
<!-- Created with Inkscape (http://www.inkscape.org/) -->
<svg
   xmlns:dc="http://purl.org/dc/elements/1.1/"
   xmlns:cc="http://web.resource.org/cc/"
   xmlns:rdf="http://www.w3.org/1999/02/22-rdf-syntax-ns#"
   xmlns:svg="http://www.w3.org/2000/svg"
   xmlns="http://www.w3.org/2000/svg"
   xmlns:xlink="http://www.w3.org/1999/xlink"
   xmlns:sodipodi="http://sodipodi.sourceforge.net/DTD/sodipodi-0.dtd"
   xmlns:inkscape="http://www.inkscape.org/namespaces/inkscape"
   width="16px"
   height="16px"
   id="svg2168"
   sodipodi:version="0.32"
   inkscape:version="0.45.1"
   inkscape:export-filename="/home/raimund/www/x/plugins/PreserveScripts/php.png"
   inkscape:export-xdpi="89.342918"
   inkscape:export-ydpi="89.342918"
   sodipodi:docbase="/home/raimund/www/x/plugins/PreserveScripts"
   sodipodi:docname="php.svg"
   inkscape:output_extension="org.inkscape.output.svg.inkscape">
  <defs
     id="defs2170">
    <linearGradient
       inkscape:collect="always"
       id="linearGradient3213">
      <stop
         style="stop-color:#f9f0f0;stop-opacity:1;"
         offset="0"
         id="stop3215" />
      <stop
         style="stop-color:#f9f0f0;stop-opacity:0;"
         offset="1"
         id="stop3217" />
    </linearGradient>
    <filter
       inkscape:collect="always"
       id="filter3199">
      <feGaussianBlur
         inkscape:collect="always"
         stdDeviation="0.1759424"
         id="feGaussianBlur3201" />
    </filter>
    <linearGradient
       inkscape:collect="always"
       xlink:href="#linearGradient3213"
       id="linearGradient3219"
       x1="1.4376229"
       y1="11.5"
       x2="5"
       y2="11.5"
       gradientUnits="userSpaceOnUse" />
    <filter
       inkscape:collect="always"
       x="-0.11355373"
       width="1.2271075"
       y="-0.054710196"
       height="1.1094204"
       id="filter3265">
      <feGaussianBlur
         inkscape:collect="always"
         stdDeviation="0.17267291"
         id="feGaussianBlur3267" />
    </filter>
    <linearGradient
       inkscape:collect="always"
       xlink:href="#linearGradient3213"
       id="linearGradient3271"
       gradientUnits="userSpaceOnUse"
       x1="1.4376229"
       y1="11.5"
       x2="5"
       y2="11.5" />
  </defs>
  <sodipodi:namedview
     id="base"
     pagecolor="#ffffff"
     bordercolor="#666666"
     borderopacity="1.0"
     inkscape:pageopacity="0.0"
     inkscape:pageshadow="2"
     inkscape:zoom="23.580645"
     inkscape:cx="8.3874665"
     inkscape:cy="7.9603711"
     inkscape:current-layer="layer1"
     showgrid="true"
     inkscape:grid-bbox="true"
     inkscape:document-units="px"
     showguides="true"
     inkscape:guide-bbox="true"
     inkscape:window-width="1280"
     inkscape:window-height="951"
     inkscape:window-x="0"
     inkscape:window-y="48">
    <sodipodi:guide
       orientation="horizontal"
       position="13.999829"
       id="guide3279" />
    <sodipodi:guide
       orientation="horizontal"
       position="1.03125"
       id="guide3281" />
    <sodipodi:guide
       orientation="vertical"
       position="2.003762"
       id="guide3283" />
  </sodipodi:namedview>
  <metadata
     id="metadata2173">
    <rdf:RDF>
      <cc:Work
         rdf:about="">
        <dc:format>image/svg+xml</dc:format>
        <dc:type
           rdf:resource="http://purl.org/dc/dcmitype/StillImage" />
      </cc:Work>
    </rdf:RDF>
  </metadata>
  <g
     id="layer1"
     inkscape:label="Layer 1"
     inkscape:groupmode="layer">
    <path
       style="fill:#729fcf;fill-opacity:1;fill-rule:nonzero;stroke:none;stroke-width:0.74000001;stroke-linecap:round;stroke-linejoin:miter;stroke-miterlimit:4;stroke-opacity:1"
       d="M 7.7985807,0.065727613 C 14.746805,0.1010246 16.103261,6.6540083 16.20884,8.1654862 L 15.95808,16 L 0.031440832,16 L -6.2746845e-16,8.1251636 C 0.022741976,4.1872904 2.8185579,0.035229736 7.7985807,0.065727613 z "
       id="rect3273"
       sodipodi:nodetypes="cccccc"
       inkscape:export-filename="/home/raimund/www/x/plugins/PreservePHP/tag.png"
       inkscape:export-xdpi="89.97699"
       inkscape:export-ydpi="89.97699" />
    <text
       xml:space="preserve"
       style="font-size:7.18612623px;font-style:normal;font-weight:normal;fill:#eeeeec;fill-opacity:1;stroke:none;stroke-width:1px;stroke-linecap:butt;stroke-linejoin:miter;stroke-opacity:1;font-family:Bitstream Vera Sans"
       x="0.92328149"
       y="13.096786"
       id="text3275"
       transform="scale(0.8731191,1.1453191)"><tspan
         sodipodi:role="line"
         id="tspan3277"
         x="0.92328149"
         y="13.096786"
         style="font-weight:bold;font-family:DejaVu Sans">PHP</tspan></text>
  </g>
</svg>
